This file contains any messages produced by compilers while
running configure, to aid debugging if configure makes a mistake.

It was created by configure, which was
generated by GNU Autoconf 2.52.20170501.  Invocation command line was

  $ ./configure 

## ---------- ##
## Platform.  ##
## ---------- ##

hostname = sakhile-VirtualBox
uname -m = x86_64
uname -r = 4.4.0-121-generic
uname -s = Linux
uname -v = #145~14.04.1-Ubuntu SMP Mon Apr 16 18:40:43 UTC 2018

/usr/bin/uname -p = unknown
/bin/uname -X     = unknown

/bin/arch              = unknown
/usr/bin/arch -k       = unknown
/usr/convex/getsysinfo = unknown
hostinfo               = unknown
/bin/machine           = unknown
/usr/bin/oslevel       = unknown
/bin/universe          = unknown

PATH = /opt/ros/indigo/bin:/usr/local/sbin:/usr/local/bin:/usr/sbin:/usr/bin:/sbin:/bin:/usr/games:/usr/local/games:/opt/fusion-core-tools/bin/

## ------------ ##
## Core tests.  ##
## ------------ ##

configure:1008: PATH=".;."; conftest.sh
./configure: 1009: ./configure: conftest.sh: not found
configure:1011: $? = 127
configure:1053: checking build system type
configure:1071: result: x86_64-pc-linux-gnu
configure:1079: checking host system type
configure:1093: result: x86_64-pc-linux-gnu
configure:1119: result: Configuring for linux-gnu
configure:1131: checking for package version
configure:1152: result: 5.0
configure:1155: checking for package patch date
configure:1172: result: 20180306
configure:1183: testing ABI VERSION 6:1:4 ...
configure:1187: testing VERSION_MAJOR 5 ...
configure:1191: testing VERSION_MINOR 0 ...
configure:1195: testing VERSION_PATCH 20180306 ...
configure:1260: checking for gcc
configure:1275: found /usr/bin/gcc
configure:1283: result: gcc
configure:1511: checking for C compiler version
configure:1514: gcc --version </dev/null >&5
gcc (Ubuntu 4.8.4-2ubuntu1~14.04.4) 4.8.4
Copyright (C) 2013 Free Software Foundation, Inc.
This is free software; see the source for copying conditions.  There is NO
warranty; not even for MERCHANTABILITY or FITNESS FOR A PARTICULAR PURPOSE.

configure:1517: $? = 0
configure:1519: gcc -v </dev/null >&5
Using built-in specs.
COLLECT_GCC=gcc
COLLECT_LTO_WRAPPER=/usr/lib/gcc/x86_64-linux-gnu/4.8/lto-wrapper
Target: x86_64-linux-gnu
Configured with: ../src/configure -v --with-pkgversion='Ubuntu 4.8.4-2ubuntu1~14.04.4' --with-bugurl=file:///usr/share/doc/gcc-4.8/README.Bugs --enable-languages=c,c++,java,go,d,fortran,objc,obj-c++ --prefix=/usr --program-suffix=-4.8 --enable-shared --enable-linker-build-id --libexecdir=/usr/lib --without-included-gettext --enable-threads=posix --with-gxx-include-dir=/usr/include/c++/4.8 --libdir=/usr/lib --enable-nls --with-sysroot=/ --enable-clocale=gnu --enable-libstdcxx-debug --enable-libstdcxx-time=yes --enable-gnu-unique-object --disable-libmudflap --enable-plugin --with-system-zlib --disable-browser-plugin --enable-java-awt=gtk --enable-gtk-cairo --with-java-home=/usr/lib/jvm/java-1.5.0-gcj-4.8-amd64/jre --enable-java-home --with-jvm-root-dir=/usr/lib/jvm/java-1.5.0-gcj-4.8-amd64 --with-jvm-jar-dir=/usr/lib/jvm-exports/java-1.5.0-gcj-4.8-amd64 --with-arch-directory=amd64 --with-ecj-jar=/usr/share/java/eclipse-ecj.jar --enable-objc-gc --enable-multiarch --disable-werror --with-arch-32=i686 --with-abi=m64 --with-multilib-list=m32,m64,mx32 --with-tune=generic --enable-checking=release --build=x86_64-linux-gnu --host=x86_64-linux-gnu --target=x86_64-linux-gnu
Thread model: posix
gcc version 4.8.4 (Ubuntu 4.8.4-2ubuntu1~14.04.4) 
configure:1522: $? = 0
configure:1524: gcc -V </dev/null >&5
gcc: error: unrecognized command line option '-V'
gcc: fatal error: no input files
compilation terminated.
configure:1527: $? = 4
configure:1547: checking for C compiler default output
configure:1550: gcc    conftest.c  >&5
configure:1553: $? = 0
configure:1582: result: a.out
configure:1587: checking whether the C compiler works
configure:1593: ./a.out
configure:1596: $? = 0
configure:1611: result: yes
configure:1618: checking whether we are cross compiling
configure:1620: result: no
configure:1623: checking for executable suffix
configure:1625: gcc -o conftest    conftest.c  >&5
configure:1628: $? = 0
configure:1650: result: 
configure:1656: checking for object suffix
configure:1674: gcc -c   conftest.c >&5
configure:1677: $? = 0
configure:1696: result: o
configure:1700: checking whether we are using the GNU C compiler
configure:1721: gcc -c   conftest.c >&5
configure:1724: $? = 0
configure:1727: test -s conftest.o
configure:1730: $? = 0
configure:1742: result: yes
configure:1748: checking whether gcc accepts -g
configure:1766: gcc -c -g  conftest.c >&5
configure:1769: $? = 0
configure:1772: test -s conftest.o
configure:1775: $? = 0
configure:1785: result: yes
configure:1812: gcc -c -g -O2  conftest.c >&5
conftest.c:2:3: error: unknown type name 'choke'
   choke me
   ^
conftest.c:2:3: error: expected '=', ',', ';', 'asm' or '__attribute__' at end of input
configure:1815: $? = 1
configure: failed program was:
#ifndef __cplusplus
  choke me
#endif
configure:1916: checking version of gcc
configure:1920: result: 4.8.4
configure:1924: checking for gcc option to accept ANSI C
configure:1981: gcc  -c -g -O2  conftest.c >&5
configure:1984: $? = 0
configure:1987: test -s conftest.o
configure:1990: $? = 0
configure:2007: result: none needed
configure:2018: checking $CC variable
configure:2153: result: ok
configure:2164: checking how to run the C preprocessor
configure:2190: gcc -E  conftest.c
configure:2196: $? = 0
configure:2223: gcc -E  conftest.c
configure:2220:28: fatal error: ac_nonexistent.h: No such file or directory
 #include "confdefs.h"
                            ^
compilation terminated.
configure:2229: $? = 1
configure: failed program was:
#line 2219 "configure"
#include "confdefs.h"
#include <ac_nonexistent.h>
configure:2266: result: gcc -E
configure:2281: gcc -E  conftest.c
configure:2287: $? = 0
configure:2314: gcc -E  conftest.c
configure:2311:28: fatal error: ac_nonexistent.h: No such file or directory
 #include "confdefs.h"
                            ^
compilation terminated.
configure:2320: $? = 1
configure: failed program was:
#line 2310 "configure"
#include "confdefs.h"
#include <ac_nonexistent.h>
configure:2398: checking for ranlib
configure:2413: found /usr/bin/ranlib
configure:2422: result: ranlib
configure:2446: checking for a BSD compatible install
configure:2495: result: /usr/bin/install -c
configure:2506: checking whether ln -s works
configure:2510: result: yes
configure:2517: checking if ln -s -f options work
configure:2529: result: yes
configure:2538: checking for lint
configure:2564: result: no
configure:2538: checking for cppcheck
configure:2564: result: no
configure:2538: checking for splint
configure:2564: result: no
configure:2609: checking for ar
configure:2624: found /usr/bin/ar
configure:2633: result: ar
configure:2645: checking whether make sets ${MAKE}
configure:2665: result: yes
configure:2674: checking for makeflags variable
configure:2712: result: 
configure:2715: checking if filesystem supports mixed-case filenames
configure:2742: result: yes
configure:2753: checking for exctags
configure:2779: result: no
configure:2753: checking for ctags
configure:2779: result: no
configure:2790: checking for exetags
configure:2816: result: no
configure:2790: checking for etags
configure:2816: result: no
configure:2825: checking for ctags
configure:2849: result: no
configure:2859: checking for etags
configure:2883: result: no
configure:2944: checking if we must define _GNU_SOURCE
configure:2966: gcc -c -g -O2  conftest.c >&5
configure: In function 'main':
configure:2958:1: error: unknown type name 'make'
 #ifndef _XOPEN_SOURCE
 ^
configure:2958:9: error: expected '=', ',', ';', 'asm' or '__attribute__' before 'error'
 #ifndef _XOPEN_SOURCE
         ^
configure:2969: $? = 1
configure: failed program was:
#line 2951 "configure"
#include "confdefs.h"
#include <sys/types.h>
int
main (void)
{

#ifndef _XOPEN_SOURCE
make an error
#endif
  ;
  return 0;
}
configure:2999: gcc -c -g -O2  -D_GNU_SOURCE conftest.c >&5
configure: In function 'main':
configure:2991:1: error: unknown type name 'make'
 #ifdef _XOPEN_SOURCE
 ^
configure:2991:9: error: expected '=', ',', ';', 'asm' or '__attribute__' before 'error'
 #ifdef _XOPEN_SOURCE
         ^
configure:3002: $? = 1
configure: failed program was:
#line 2984 "configure"
#include "confdefs.h"
#include <sys/types.h>
int
main (void)
{

#ifdef _XOPEN_SOURCE
make an error
#endif
  ;
  return 0;
}
configure:3023: result: yes
configure:3028: checking if we should also define _DEFAULT_SOURCE
configure:3051: gcc -c -g -O2  -D_GNU_SOURCE conftest.c >&5
configure: In function 'main':
configure:3043:1: error: unknown type name 'make'
 #ifdef _DEFAULT_SOURCE
 ^
configure:3043:9: error: expected '=', ',', ';', 'asm' or '__attribute__' before 'error'
 #ifdef _DEFAULT_SOURCE
         ^
configure:3054: $? = 1
configure: failed program was:
#line 3036 "configure"
#include "confdefs.h"
#include <sys/types.h>
int
main (void)
{

#ifdef _DEFAULT_SOURCE
make an error
#endif
  ;
  return 0;
}
configure:3071: result: yes
configure:3946: checking if _XOPEN_SOURCE really is set
configure:3964: gcc -c -g -O2  -D_GNU_SOURCE -D_DEFAULT_SOURCE conftest.c >&5
configure:3967: $? = 0
configure:3970: test -s conftest.o
configure:3973: $? = 0
configure:3982: result: yes
configure:4002: gcc -c -g -O2  -D_GNU_SOURCE -D_DEFAULT_SOURCE conftest.c >&5
configure:4005: $? = 0
configure:4008: test -s conftest.o
configure:4011: $? = 0
configure:4232: checking if you want to see long compiling messages
configure:4266: result: yes
configure:4313: checking for specific curses-directory
configure:4323: result: no
configure:4474: checking if you want to check for gcc warnings
configure:4484: result: no
configure:4838: checking if you want to use pkg-config
configure:4848: result: yes
configure:4900: checking for pkg-config
configure:4917: found /usr/bin/pkg-config
configure:4929: result: /usr/bin/pkg-config
configure:4986: checking if rpath option should be used
configure:4996: result: no
configure:5000: checking for an rpath option
configure:5031: result: -Wl,-rpath,
configure:5094: checking if rpath-hack should be disabled
configure:5111: result: no
configure:5115: checking for updated LDFLAGS
configure:5118: result: maybe
configure:5125: checking for ldd
configure:5140: found /usr/bin/ldd
configure:5148: result: ldd
configure:5177: gcc -o conftest -g -O2  -D_GNU_SOURCE -D_DEFAULT_SOURCE  conftest.c  >&5
configure:5180: $? = 0
configure:5183: test -s conftest
configure:5186: $? = 0
configure:5226: testing ...checking EXTRA_LDFLAGS  ...
configure:5230: testing ...checking LDFLAGS  ...
configure:5280: testing ...checked LDFLAGS  ...
configure:5284: testing ...checking LIBS  ...
configure:5334: testing ...checked LIBS  ...
configure:5338: testing ...checked EXTRA_LDFLAGS  ...
configure:5446: checking if libtool -version-number should be used
configure:5463: result: yes
configure:5512: checking if you want to build libraries with libtool
configure:5522: result: no
configure:5870: checking if you want to build shared libraries
configure:5880: result: no
configure:6634: checking if you want to use dmalloc for testing
configure:6651: result: no
configure:6866: checking if you want to use dbmalloc for testing
configure:6883: result: no
configure:7098: checking if you want to use valgrind for testing
configure:7115: result: no
configure:7228: checking if you want to perform memory-leak testing
configure:7238: result: no
configure:7256: checking for dirent.h that defines DIR
configure:7277: gcc -c -g -O2  -D_GNU_SOURCE -D_DEFAULT_SOURCE conftest.c >&5
configure:7280: $? = 0
configure:7283: test -s conftest.o
configure:7286: $? = 0
configure:7296: result: yes
configure:7309: checking for opendir in -ldir
configure:7336: gcc -o conftest -g -O2  -D_GNU_SOURCE -D_DEFAULT_SOURCE  conftest.c -ldir   >&5
/usr/bin/ld: cannot find -ldir
collect2: error: ld returned 1 exit status
configure:7339: $? = 1
configure: failed program was:
#line 7317 "configure"
#include "confdefs.h"

/* Override any gcc2 internal prototype to avoid an error.  */
#ifdef __cplusplus
extern "C"
#endif
/* We use char because int might match the return type of a gcc2
   builtin and then its argument prototype would still apply.  */
char opendir ();
int
main (void)
{
opendir ();
  ;
  return 0;
}
configure:7356: result: no
configure:7418: checking for ANSI C header files
configure:7432: gcc -E  -D_GNU_SOURCE -D_DEFAULT_SOURCE conftest.c
configure:7438: $? = 0
configure:7525: gcc -o conftest -g -O2  -D_GNU_SOURCE -D_DEFAULT_SOURCE  conftest.c  >&5
configure:7528: $? = 0
configure:7530: ./conftest
configure:7533: $? = 0
configure:7546: result: yes
configure:7564: checking for limits.h
configure:7574: gcc -E  -D_GNU_SOURCE -D_DEFAULT_SOURCE conftest.c
configure:7580: $? = 0
configure:7599: result: yes
configure:7564: checking for unistd.h
configure:7574: gcc -E  -D_GNU_SOURCE -D_DEFAULT_SOURCE conftest.c
configure:7580: $? = 0
configure:7599: result: yes
configure:7564: checking for pwd.h
configure:7574: gcc -E  -D_GNU_SOURCE -D_DEFAULT_SOURCE conftest.c
configure:7580: $? = 0
configure:7599: result: yes
configure:7564: checking for grp.h
configure:7574: gcc -E  -D_GNU_SOURCE -D_DEFAULT_SOURCE conftest.c
configure:7580: $? = 0
configure:7599: result: yes
configure:7615: checking for sys/types.h
configure:7627: gcc -c -g -O2  -D_GNU_SOURCE -D_DEFAULT_SOURCE conftest.c >&5
configure:7630: $? = 0
configure:7633: test -s conftest.o
configure:7636: $? = 0
configure:7646: result: yes
configure:7615: checking for sys/stat.h
configure:7627: gcc -c -g -O2  -D_GNU_SOURCE -D_DEFAULT_SOURCE conftest.c >&5
configure:7630: $? = 0
configure:7633: test -s conftest.o
configure:7636: $? = 0
configure:7646: result: yes
configure:7615: checking for stdlib.h
configure:7627: gcc -c -g -O2  -D_GNU_SOURCE -D_DEFAULT_SOURCE conftest.c >&5
configure:7630: $? = 0
configure:7633: test -s conftest.o
configure:7636: $? = 0
configure:7646: result: yes
configure:7615: checking for string.h
configure:7627: gcc -c -g -O2  -D_GNU_SOURCE -D_DEFAULT_SOURCE conftest.c >&5
configure:7630: $? = 0
configure:7633: test -s conftest.o
configure:7636: $? = 0
configure:7646: result: yes
configure:7615: checking for memory.h
configure:7627: gcc -c -g -O2  -D_GNU_SOURCE -D_DEFAULT_SOURCE conftest.c >&5
configure:7630: $? = 0
configure:7633: test -s conftest.o
configure:7636: $? = 0
configure:7646: result: yes
configure:7615: checking for strings.h
configure:7627: gcc -c -g -O2  -D_GNU_SOURCE -D_DEFAULT_SOURCE conftest.c >&5
configure:7630: $? = 0
configure:7633: test -s conftest.o
configure:7636: $? = 0
configure:7646: result: yes
configure:7615: checking for inttypes.h
configure:7627: gcc -c -g -O2  -D_GNU_SOURCE -D_DEFAULT_SOURCE conftest.c >&5
configure:7630: $? = 0
configure:7633: test -s conftest.o
configure:7636: $? = 0
configure:7646: result: yes
configure:7615: checking for stdint.h
configure:7627: gcc -c -g -O2  -D_GNU_SOURCE -D_DEFAULT_SOURCE conftest.c >&5
configure:7630: $? = 0
configure:7633: test -s conftest.o
configure:7636: $? = 0
configure:7646: result: yes
configure:7615: checking for unistd.h
configure:7646: result: yes
configure:7656: checking for mode_t
configure:7677: gcc -c -g -O2  -D_GNU_SOURCE -D_DEFAULT_SOURCE conftest.c >&5
configure:7680: $? = 0
configure:7683: test -s conftest.o
configure:7686: $? = 0
configure:7696: result: yes
configure:7708: checking whether struct tm is in sys/time.h or time.h
configure:7728: gcc -c -g -O2  -D_GNU_SOURCE -D_DEFAULT_SOURCE conftest.c >&5
configure:7731: $? = 0
configure:7734: test -s conftest.o
configure:7737: $? = 0
configure:7747: result: time.h
configure:7757: checking for extra include directories
configure:7783: result: no
configure:7787: checking if we have identified curses headers
configure:7811: gcc -c -g -O2  -D_GNU_SOURCE -D_DEFAULT_SOURCE conftest.c >&5
configure:7814: $? = 0
configure:7817: test -s conftest.o
configure:7820: $? = 0
configure:7831: result: ncurses.h
configure:7845: checking for ncurses.h
configure:7855: gcc -E  -D_GNU_SOURCE -D_DEFAULT_SOURCE conftest.c
configure:7861: $? = 0
configure:7880: result: yes
configure:7890: checking for terminfo header
configure:7923: gcc -c -g -O2  -D_GNU_SOURCE -D_DEFAULT_SOURCE conftest.c >&5
configure:7926: $? = 0
configure:7929: test -s conftest.o
configure:7932: $? = 0
configure:7948: result: term.h
configure:7980: checking for chtype typedef
configure:7999: gcc -c -g -O2  -D_GNU_SOURCE -D_DEFAULT_SOURCE conftest.c >&5
configure:8002: $? = 0
configure:8005: test -s conftest.o
configure:8008: $? = 0
configure:8018: result: yes
configure:8026: checking if chtype is scalar or struct
configure:8045: gcc -c -g -O2  -D_GNU_SOURCE -D_DEFAULT_SOURCE conftest.c >&5
configure:8048: $? = 0
configure:8051: test -s conftest.o
configure:8054: $? = 0
configure:8064: result: scalar
configure:8078: checking for unistd.h
configure:8113: result: yes
configure:8078: checking for getopt.h
configure:8088: gcc -E  -D_GNU_SOURCE -D_DEFAULT_SOURCE conftest.c
configure:8094: $? = 0
configure:8113: result: yes
configure:8123: checking for header declaring getopt variables
configure:8146: gcc -c -g -O2  -D_GNU_SOURCE -D_DEFAULT_SOURCE conftest.c >&5
configure: In function 'main':
configure:8139:9: error: 'optind' undeclared (first use in this function)
 {
         ^
configure:8139:9: note: each undeclared identifier is reported only once for each function it appears in
configure:8139:27: error: 'optarg' undeclared (first use in this function)
 {
                           ^
configure:8149: $? = 1
configure: failed program was:
#line 8133 "configure"
#include "confdefs.h"

#include <stdio.h>
int
main (void)
{
int x = optind; char *y = optarg
  ;
  return 0;
}
configure:8146: gcc -c -g -O2  -D_GNU_SOURCE -D_DEFAULT_SOURCE conftest.c >&5
configure: In function 'main':
configure:8139:9: error: 'optind' undeclared (first use in this function)
 {
         ^
configure:8139:9: note: each undeclared identifier is reported only once for each function it appears in
configure:8139:27: error: 'optarg' undeclared (first use in this function)
 {
                           ^
configure:8149: $? = 1
configure: failed program was:
#line 8133 "configure"
#include "confdefs.h"

#include <stdlib.h>
int
main (void)
{
int x = optind; char *y = optarg
  ;
  return 0;
}
configure:8146: gcc -c -g -O2  -D_GNU_SOURCE -D_DEFAULT_SOURCE conftest.c >&5
configure:8149: $? = 0
configure:8152: test -s conftest.o
configure:8155: $? = 0
configure:8167: result: unistd.h
configure:8194: checking for getcwd
configure:8231: gcc -o conftest -g -O2  -D_GNU_SOURCE -D_DEFAULT_SOURCE  conftest.c  >&5
configure:8234: $? = 0
configure:8237: test -s conftest
configure:8240: $? = 0
configure:8250: result: yes
configure:8194: checking for mktime
configure:8231: gcc -o conftest -g -O2  -D_GNU_SOURCE -D_DEFAULT_SOURCE  conftest.c  >&5
configure:8234: $? = 0
configure:8237: test -s conftest
configure:8240: $? = 0
configure:8250: result: yes
configure:8194: checking for strdup
configure:8231: gcc -o conftest -g -O2  -D_GNU_SOURCE -D_DEFAULT_SOURCE  conftest.c  >&5
configure:8210:6: warning: conflicting types for built-in function 'strdup' [enabled by default]
    builtin and then its argument prototype would still apply.  */
      ^
configure:8234: $? = 0
configure:8237: test -s conftest
configure:8240: $? = 0
configure:8250: result: yes
configure:8194: checking for strerror
configure:8231: gcc -o conftest -g -O2  -D_GNU_SOURCE -D_DEFAULT_SOURCE  conftest.c  >&5
configure:8234: $? = 0
configure:8237: test -s conftest
configure:8240: $? = 0
configure:8250: result: yes
configure:8194: checking for getlogin
configure:8231: gcc -o conftest -g -O2  -D_GNU_SOURCE -D_DEFAULT_SOURCE  conftest.c  >&5
configure:8234: $? = 0
configure:8237: test -s conftest
configure:8240: $? = 0
configure:8250: result: yes
configure:8194: checking for sleep
configure:8231: gcc -o conftest -g -O2  -D_GNU_SOURCE -D_DEFAULT_SOURCE  conftest.c  >&5
configure:8234: $? = 0
configure:8237: test -s conftest
configure:8240: $? = 0
configure:8250: result: yes
configure:8260: checking for lstat
configure:8281: gcc -o conftest -g -O2  -D_GNU_SOURCE -D_DEFAULT_SOURCE  conftest.c  >&5
configure: In function 'main':
configure:8274:20: warning: null argument where non-null required (argument 2) [-Wnonnull]
 {
                    ^
configure:8284: $? = 0
configure:8287: test -s conftest
configure:8290: $? = 0
configure:8302: result: yes 
configure:8312: checking for setlocale()
configure:8331: gcc -o conftest -g -O2  -D_GNU_SOURCE -D_DEFAULT_SOURCE  conftest.c  >&5
configure:8334: $? = 0
configure:8337: test -s conftest
configure:8340: $? = 0
configure:8352: result: yes
configure:8360: checking for specific curses-directory
configure:8370: result: no
configure:8521: checking for specified curses library type
configure:8565: result: curses
configure:8571: checking for extra include directories
configure:8597: result: no
configure:8601: checking if we have identified curses headers
configure:8645: result: ncurses.h
configure:8659: checking for ncurses.h
configure:8694: result: yes
configure:8704: checking for terminfo header
configure:8762: result: term.h
configure:8794: checking for ncurses version
configure:8858: gcc -o conftest -g -O2  -D_GNU_SOURCE -D_DEFAULT_SOURCE  conftest.c  >&5
configure:8861: $? = 0
configure:8863: ./conftest
configure:8866: $? = 0
configure:8880: result: 5.9.20140118
configure:8887: checking if we have identified curses libraries
configure:8902: gcc -o conftest -g -O2  -D_GNU_SOURCE -D_DEFAULT_SOURCE  conftest.c  >&5
/tmp/ccxCNhpU.o: In function `main':
/home/sakhile/Documents/Capstone_Design/senior_project/Simulator/cdk-5.0-20180306/configure:8895: undefined reference to `initscr'
/home/sakhile/Documents/Capstone_Design/senior_project/Simulator/cdk-5.0-20180306/configure:8895: undefined reference to `tgoto'
collect2: error: ld returned 1 exit status
configure:8905: $? = 1
configure: failed program was:
#line 8890 "configure"
#include "confdefs.h"
#include <ncurses.h>
int
main (void)
{
initscr(); tgoto("?", 0,0)
  ;
  return 0;
}
configure:8920: result: no
configure:9177: testing adding /lib64 to library-path ...
configure:9316: checking for tgoto
configure:9353: gcc -o conftest -g -O2  -D_GNU_SOURCE -D_DEFAULT_SOURCE -L/lib64  conftest.c  >&5
/tmp/ccC5MNL5.o: In function `main':
/home/sakhile/Documents/Capstone_Design/senior_project/Simulator/cdk-5.0-20180306/configure:9344: undefined reference to `tgoto'
collect2: error: ld returned 1 exit status
configure:9356: $? = 1
configure: failed program was:
#line 9322 "configure"
#include "confdefs.h"
/* System header to define __stub macros and hopefully few prototypes,
    which can conflict with char tgoto (); below.  */
#include <assert.h>
/* Override any gcc2 internal prototype to avoid an error.  */
#ifdef __cplusplus
extern "C"
#endif
/* We use char because int might match the return type of a gcc2
   builtin and then its argument prototype would still apply.  */
char tgoto ();
char (*f) ();

int
main (void)
{
/* The GNU C library defines this for functions which it implements
    to always fail with ENOSYS.  Some functions are actually named
    something starting with __ and the normal name is an alias.  */
#if defined (__stub_tgoto) || defined (__stub___tgoto)
choke me
#else
f = tgoto; /* workaround for ICC 12.0.3 */ if (f == 0) return 1;
#endif

  ;
  return 0;
}
configure:9372: result: no
configure:9381: checking for tgoto in -lncurses
configure:9408: gcc -o conftest -g -O2  -D_GNU_SOURCE -D_DEFAULT_SOURCE -L/lib64  conftest.c -lncurses   >&5
configure:9411: $? = 0
configure:9414: test -s conftest
configure:9417: $? = 0
configure:9428: result: yes
configure:9451: checking if we can link with ncurses library
configure:9466: gcc -o conftest -g -O2  -D_GNU_SOURCE -D_DEFAULT_SOURCE -L/lib64  conftest.c -lncurses  >&5
configure:9469: $? = 0
configure:9472: test -s conftest
configure:9475: $? = 0
configure:9484: result: yes
configure:17475: checking for _nc_init_pthreads in -lncurses
configure:17502: gcc -o conftest -g -O2  -D_GNU_SOURCE -D_DEFAULT_SOURCE -L/lib64  conftest.c -lncurses  -lncurses  >&5
/tmp/cceu3I7f.o: In function `main':
/home/sakhile/Documents/Capstone_Design/senior_project/Simulator/cdk-5.0-20180306/configure:17495: undefined reference to `_nc_init_pthreads'
collect2: error: ld returned 1 exit status
configure:17505: $? = 1
configure: failed program was:
#line 17483 "configure"
#include "confdefs.h"

/* Override any gcc2 internal prototype to avoid an error.  */
#ifdef __cplusplus
extern "C"
#endif
/* We use char because int might match the return type of a gcc2
   builtin and then its argument prototype would still apply.  */
char _nc_init_pthreads ();
int
main (void)
{
_nc_init_pthreads ();
  ;
  return 0;
}
configure:17522: result: no
configure:17566: checking for XXX-config rootname
configure:17574: result: cdk
configure:17577: checking if cdk.h should be in header subdirectory
configure:17585: result: 
configure:17595: checking for header subdirectory
configure:17603: result: cdk
configure:17606: checking for library name
configure:17614: result: cdk
configure:17617: checking if improved const-typing should be used
configure:17627: result: no
configure:17653: checking definition to turn on extended curses functions
configure:17687: gcc -o conftest -g -O2  -D_GNU_SOURCE -D_DEFAULT_SOURCE -L/lib64  conftest.c -lncurses  >&5
configure:17690: $? = 0
configure:17693: test -s conftest
configure:17696: $? = 0
configure:17751: result: none
configure:17760: checking for term.h
configure:17865: result: term.h
configure:17892: checking for unctrl.h
configure:17927: gcc -c -g -O2  -D_GNU_SOURCE -D_DEFAULT_SOURCE conftest.c >&5
configure:17930: $? = 0
configure:17933: test -s conftest.o
configure:17936: $? = 0
configure:17949: result: unctrl.h
configure:17996: checking for Xinitscr
configure:17999: testing Xinitscr ...
configure:18041: gcc -o conftest -g -O2  -D_GNU_SOURCE -D_DEFAULT_SOURCE -L/lib64  conftest.c -lncurses  >&5
configure: In function 'main':
configure:18029:20: error: 'Xinitscr' undeclared (first use in this function)
 #ifndef ${cf_func}
                    ^
configure:18029:20: note: each undeclared identifier is reported only once for each function it appears in
configure:18044: $? = 1
configure: failed program was:
#line 18008 "configure"
#include "confdefs.h"

#ifdef HAVE_XCURSES
#include <xcurses.h>
char * XCursesProgramName = "test";
#else
#include <ncurses.h>
#if defined(NCURSES_VERSION) && defined(HAVE_NCURSESW_TERM_H)
#include <ncursesw/term.h>
#elif defined(NCURSES_VERSION) && defined(HAVE_NCURSES_TERM_H)
#include <ncurses/term.h>
#elif defined(HAVE_TERM_H)
#include <term.h>
#endif
#endif

int
main (void)
{

#ifndef Xinitscr
long foo = (long)(&Xinitscr);
fprintf(stderr, "testing linkage of Xinitscr:%p\n", (void *)foo);
if (foo + 1234L > 5678L)
	return(foo != 0);
#endif

  ;
  return 0;
}
configure:18066: result: no
configure:17996: checking for getbegx
configure:17999: testing getbegx ...
configure:18041: gcc -o conftest -g -O2  -D_GNU_SOURCE -D_DEFAULT_SOURCE -L/lib64  conftest.c -lncurses  >&5
configure:18044: $? = 0
configure:18047: test -s conftest
configure:18050: $? = 0
configure:18066: result: yes
configure:17996: checking for getbegy
configure:17999: testing getbegy ...
configure:18041: gcc -o conftest -g -O2  -D_GNU_SOURCE -D_DEFAULT_SOURCE -L/lib64  conftest.c -lncurses  >&5
configure:18044: $? = 0
configure:18047: test -s conftest
configure:18050: $? = 0
configure:18066: result: yes
configure:17996: checking for getmaxx
configure:17999: testing getmaxx ...
configure:18041: gcc -o conftest -g -O2  -D_GNU_SOURCE -D_DEFAULT_SOURCE -L/lib64  conftest.c -lncurses  >&5
configure:18044: $? = 0
configure:18047: test -s conftest
configure:18050: $? = 0
configure:18066: result: yes
configure:17996: checking for getmaxy
configure:17999: testing getmaxy ...
configure:18041: gcc -o conftest -g -O2  -D_GNU_SOURCE -D_DEFAULT_SOURCE -L/lib64  conftest.c -lncurses  >&5
configure:18044: $? = 0
configure:18047: test -s conftest
configure:18050: $? = 0
configure:18066: result: yes
configure:17996: checking for start_color
configure:17999: testing start_color ...
configure:18041: gcc -o conftest -g -O2  -D_GNU_SOURCE -D_DEFAULT_SOURCE -L/lib64  conftest.c -lncurses  >&5
configure:18044: $? = 0
configure:18047: test -s conftest
configure:18050: $? = 0
configure:18066: result: yes
configure:18191: checking how to define setbegyx
configure:18216: gcc -c -g -O2  -D_GNU_SOURCE -D_DEFAULT_SOURCE conftest.c >&5
configure:18219: $? = 0
configure:18222: test -s conftest.o
configure:18225: $? = 0
configure:18234: result: "((win)->_begy = (y), (win)->_begx = (x), OK)"
configure:18349: creating ./config.status

## ----------------------- ##
## Running config.status.  ##
## ----------------------- ##

This file was extended by config.status 2.52.20170501, executed with
  CONFIG_FILES    = 
  CONFIG_HEADERS  = 
  CONFIG_LINKS    = 
  CONFIG_COMMANDS = 
  > ./config.status 
on sakhile-VirtualBox

config.status:18928: creating cdk-config
config.status:18928: creating include/cdk_version.h
config.status:18928: creating Makefile
config.status:18928: creating cli/Makefile
config.status:18928: creating examples/Makefile
config.status:18928: creating demos/Makefile
config.status:19081: creating include/cdk_config.h

## ----------------- ##
## Cache variables.  ##
## ----------------- ##

ac_cv_build='x86_64-pc-linux-gnu'
ac_cv_build_alias='x86_64-pc-linux-gnu'
ac_cv_c_compiler_gnu='yes'
ac_cv_env_CC_set=''
ac_cv_env_CC_value=''
ac_cv_env_CFLAGS_set=''
ac_cv_env_CFLAGS_value=''
ac_cv_env_CPPFLAGS_set=''
ac_cv_env_CPPFLAGS_value=''
ac_cv_env_CPP_set=''
ac_cv_env_CPP_value=''
ac_cv_env_LDFLAGS_set=''
ac_cv_env_LDFLAGS_value=''
ac_cv_env_build_alias_set=''
ac_cv_env_build_alias_value=''
ac_cv_env_host_alias_set=''
ac_cv_env_host_alias_value=''
ac_cv_env_target_alias_set=''
ac_cv_env_target_alias_value=''
ac_cv_func_getcwd='yes'
ac_cv_func_getlogin='yes'
ac_cv_func_lstat='yes'
ac_cv_func_mktime='yes'
ac_cv_func_sleep='yes'
ac_cv_func_strdup='yes'
ac_cv_func_strerror='yes'
ac_cv_func_tgoto='no'
ac_cv_header_dirent_dirent_h='yes'
ac_cv_header_getopt_h='yes'
ac_cv_header_grp_h='yes'
ac_cv_header_inttypes_h='yes'
ac_cv_header_limits_h='yes'
ac_cv_header_memory_h='yes'
ac_cv_header_ncurses_h='yes'
ac_cv_header_pwd_h='yes'
ac_cv_header_stdc='yes'
ac_cv_header_stdint_h='yes'
ac_cv_header_stdlib_h='yes'
ac_cv_header_string_h='yes'
ac_cv_header_strings_h='yes'
ac_cv_header_sys_stat_h='yes'
ac_cv_header_sys_types_h='yes'
ac_cv_header_unistd_h='yes'
ac_cv_host='x86_64-pc-linux-gnu'
ac_cv_host_alias='x86_64-pc-linux-gnu'
ac_cv_lib_dir_opendir='no'
ac_cv_lib_ncurses____nc_init_pthreads='no'
ac_cv_lib_ncurses___tgoto='yes'
ac_cv_objext='o'
ac_cv_path_ac_pt_PKG_CONFIG='/usr/bin/pkg-config'
ac_cv_path_install='/usr/bin/install -c'
ac_cv_prog_CPP='gcc -E'
ac_cv_prog_MAKE_LOWER_TAGS='no'
ac_cv_prog_MAKE_UPPER_TAGS='no'
ac_cv_prog_ac_ct_AR='ar'
ac_cv_prog_ac_ct_CC='gcc'
ac_cv_prog_ac_ct_RANLIB='ranlib'
ac_cv_prog_cc_g='yes'
ac_cv_prog_cc_stdc=''
ac_cv_prog_cf_ldd_prog='ldd'
ac_cv_prog_make_make_set='yes'
ac_cv_struct_tm='time.h'
ac_cv_type_mode_t='yes'
cf_cv_abi_version='0'
cf_cv_chtype_decl='yes'
cf_cv_chtype_type='scalar'
cf_cv_curses_dir='no'
cf_cv_curses_incdir='no'
cf_cv_default_source='yes'
cf_cv_enable_rpath='no'
cf_cv_func_Xinitscr='no'
cf_cv_func_getbegx='yes'
cf_cv_func_getbegy='yes'
cf_cv_func_getmaxx='yes'
cf_cv_func_getmaxy='yes'
cf_cv_func_start_color='yes'
cf_cv_getopt_header='unistd.h'
cf_cv_gnu_source='yes'
cf_cv_locale='yes'
cf_cv_makeflags=''
cf_cv_mixedcase='yes'
cf_cv_ncurses_header='ncurses.h'
cf_cv_ncurses_pthreads='no'
cf_cv_ncurses_version='5.9.20140118'
cf_cv_need_xopen_extension='none'
cf_cv_rel_version='5.0'
cf_cv_screen='curses'
cf_cv_system_name='linux-gnu'
cf_cv_term_header='term.h'
cf_cv_unctrl_header='unctrl.h'

## ------------ ##
## confdefs.h.  ##
## ------------ ##

#define SYSTEM_NAME "linux-gnu"
#define PACKAGE "cdk"
#define CDK_VERSION "5.0"
#define CDK_PATCHDATE 20180306
#define MIXEDCASE_FILENAMES 1
#define HAVE_DIRENT_H 1
#define STDC_HEADERS 1
#define HAVE_LIMITS_H 1
#define HAVE_UNISTD_H 1
#define HAVE_PWD_H 1
#define HAVE_GRP_H 1
#define HAVE_SYS_TYPES_H 1
#define HAVE_SYS_STAT_H 1
#define HAVE_STDLIB_H 1
#define HAVE_STRING_H 1
#define HAVE_MEMORY_H 1
#define HAVE_STRINGS_H 1
#define HAVE_INTTYPES_H 1
#define HAVE_STDINT_H 1
#define HAVE_UNISTD_H 1
#define HAVE_NCURSES_H 1
#define HAVE_TERM_H 1
#define HAVE_TYPE_CHTYPE 1
#define TYPE_CHTYPE_IS_SCALAR 1
#define HAVE_UNISTD_H 1
#define HAVE_GETOPT_H 1
#define HAVE_GETOPT_HEADER 1
#define HAVE_GETCWD 1
#define HAVE_MKTIME 1
#define HAVE_STRDUP 1
#define HAVE_STRERROR 1
#define HAVE_GETLOGIN 1
#define HAVE_SLEEP 1
#define HAVE_LSTAT 1
#define HAVE_SETLOCALE 1
#define HAVE_NCURSES_H 1
#define HAVE_TERM_H 1
#define NCURSES 1
#define CDK_CONST /*nothing*/
#define CDK_CSTRING CDK_CONST char *
#define CDK_CSTRING2 CDK_CONST char * CDK_CONST *
#define HAVE_TERM_H 1
#define HAVE_UNCTRL_H 1
#define HAVE_GETBEGX 1
#define HAVE_GETBEGY 1
#define HAVE_GETMAXX 1
#define HAVE_GETMAXY 1
#define HAVE_START_COLOR 1
#define setbegyx(win,y,x) ((win)->_begy = (y), (win)->_begx = (x), OK)


configure: exit 0
